{
    "AWSTemplateFormatVersion": "2010-09-09",
    "Conditions": {
        "RegionIsUsEast1": {
            "Fn::Equals": [
                {
                    "Ref": "AWS::Region"
                },
                "us-east-1"
            ]
        }
    },
    "Description": "VPC for kixi clusters",
    "Mappings": {
    },
    "Metadata": {
        "TemplateGenerationDate": "2015-12-22 00:24:04.771619"
    },
    "Outputs": {
        "VpcId": {
            "Description": "VPC ID",
            "Value": {
                "Ref": "Vpc"
            }
        },
        "PublicNetworkAclId": {
            "Description": "Public network ACL",
            "Value": {
                "Ref": "PublicNetworkAcl"
            }
        },
        "PublicRouteTableId": {
            "Description": "Public Route Table",
            "Value": {
                "Ref": "PublicRouteTable"
            }
        },
        "PrivateNetworkAclId": {
            "Description": "Public network ACL",
            "Value": {
                "Ref": "PrivateNetworkAcl"
            }
        }
    },
    "Parameters": {
        "VPCRange": {
           "Description": "CIDR for VPC",
           "AllowedPattern": "^([0-9]+\\.){3}[0-9]+\\/[0-9]+$",
           "ConstraintDescription": "must be a valid CIDR.",
           "MaxLength": "18",
           "MinLength": "9",
           "Type": "String"
        }
    },
    "Resources": {
        "DHCPOptions": {
            "Properties": {
                "DomainName": {
                    "Fn::If": [
                        "RegionIsUsEast1",
                        "ec2.internal",
                        {
                            "Fn::Join": [
                                "",
                                [
                                    {
                                        "Ref": "AWS::Region"
                                    },
                                    ".compute.internal"
                                ]
                            ]
                        }
                    ]
                },
                "DomainNameServers": [
                    "AmazonProvidedDNS"
                ]
            },
            "Type": "AWS::EC2::DHCPOptions"
        },
        "GatewayToInternet": {
            "DependsOn": "InternetGateway",
            "Properties": {
                "InternetGatewayId": {
                    "Ref": "InternetGateway"
                },
                "VpcId": {
                    "Ref": "Vpc"
                }
            },
            "Type": "AWS::EC2::VPCGatewayAttachment"
        },
        "InboundNetworkAclEntry": {
            "Properties": {
                "CidrBlock": "0.0.0.0/0",
                "Egress": "false",
                "NetworkAclId": {
                    "Ref": "PublicNetworkAcl"
                },
                "PortRange": {
                    "From": "0",
                    "To": "65535"
                },
                "Protocol": "-1",
                "RuleAction": "allow",
                "RuleNumber": "100"
            },
            "Type": "AWS::EC2::NetworkAclEntry"
        },
        "InternetGateway": {
            "DependsOn": "Vpc",
            "Properties": {
                "Tags": [
                    {
                        "Key": "Application",
                        "Value": {
                            "Ref": "AWS::StackName"
                        }
                    },
                    {
                        "Key": "Network",
                        "Value": "Public"
                    }
                ]
            },
            "Type": "AWS::EC2::InternetGateway"
        },
        "OutboundNetworkAclEntry": {
            "Properties": {
                "CidrBlock": "0.0.0.0/0",
                "Egress": "true",
                "NetworkAclId": {
                    "Ref": "PublicNetworkAcl"
                },
                "PortRange": {
                    "From": "0",
                    "To": "65535"
                },
                "Protocol": "-1",
                "RuleAction": "allow",
                "RuleNumber": "100"
            },
            "Type": "AWS::EC2::NetworkAclEntry"
        },
        "PrivateInboundNetworkAclEntry": {
            "Properties": {
                "CidrBlock": "0.0.0.0/0",
                "Egress": "false",
                "NetworkAclId": {
                    "Ref": "PrivateNetworkAcl"
                },
                "PortRange": {
                    "From": "0",
                    "To": "65535"
                },
                "Protocol": "-1",
                "RuleAction": "allow",
                "RuleNumber": "100"
            },
            "Type": "AWS::EC2::NetworkAclEntry"
        },
        "PrivateNetworkAcl": {
            "Properties": {
                "Tags": [
                    {
                        "Key": "Application",
                        "Value": {
                            "Ref": "AWS::StackName"
                        }
                    },
                    {
                        "Key": "Network",
                        "Value": "Public"
                    }
                ],
                "VpcId": {
                    "Ref": "Vpc"
                }
            },
            "Type": "AWS::EC2::NetworkAcl"
        },
        "PrivateOutboundNetworkAclEntry": {
            "Properties": {
                "CidrBlock": "0.0.0.0/0",
                "Egress": "true",
                "NetworkAclId": {
                    "Ref": "PrivateNetworkAcl"
                },
                "PortRange": {
                    "From": "0",
                    "To": "65535"
                },
                "Protocol": "-1",
                "RuleAction": "allow",
                "RuleNumber": "100"
            },
            "Type": "AWS::EC2::NetworkAclEntry"
        },
        "PublicNetworkAcl": {
            "Properties": {
                "Tags": [
                    {
                        "Key": "Application",
                        "Value": {
                            "Ref": "AWS::StackName"
                        }
                    },
                    {
                        "Key": "Network",
                        "Value": "Public"
                    }
                ],
                "VpcId": {
                    "Ref": "Vpc"
                }
            },
            "Type": "AWS::EC2::NetworkAcl"
        },
        "PublicRoute": {
            "DependsOn": "GatewayToInternet",
            "Properties": {
                "DestinationCidrBlock": "0.0.0.0/0",
                "GatewayId": {
                    "Ref": "InternetGateway"
                },
                "RouteTableId": {
                    "Ref": "PublicRouteTable"
                }
            },
            "Type": "AWS::EC2::Route"
        },
        "PublicRouteTable": {
            "Properties": {
                "Tags": [
                    {
                        "Key": "Application",
                        "Value": {
                            "Ref": "AWS::StackName"
                        }
                    },
                    {
                        "Key": "Network",
                        "Value": "Public"
                    }
                ],
                "VpcId": {
                    "Ref": "Vpc"
                }
            },
            "Type": "AWS::EC2::RouteTable"
        },
        "VPCDHCPOptionsAssociation": {
            "Properties": {
                "DhcpOptionsId": {
                    "Ref": "DHCPOptions"
                },
                "VpcId": {
                    "Ref": "Vpc"
                }
            },
            "Type": "AWS::EC2::VPCDHCPOptionsAssociation"
        },
        "Vpc": {
            "Properties": {
                "CidrBlock": { "Ref" : "VPCRange" },
                "EnableDnsHostnames": "true",
                "EnableDnsSupport": "true",
                "Tags": [
                    {
                        "Key": "Application",
                        "Value": {
                            "Ref": "AWS::StackName"
                        }
                    },
                    {
                        "Key": "Network",
                        "Value": "Public"
                    }
                ]
            },
            "Type": "AWS::EC2::VPC"
        }
    }
}
